{
	"name": "CartoVrac",
	"catchphrase": "Shops selling bulk purchase products",
	"logo": "https://cartovrac.fr/logo.png",
	"picture": "https://raw.githubusercontent.com/vivreanantes/cartovrac/master/assets/img/logo-carte.png",
	"description": "CartoVrac allows you to find shops that sell bulk purchase products enabling you to buy just what you need, without packaging and therefore reduce your waste.",
	"start_url": "https://cartovrac.fr",
	"doc_url": "https://github.com/vivreanantes/cartovrac/wiki/CartoVrac%27s-Wiki",
	"settings": {
		"duration": "seconds",
		"where": "everywhere",
		"difficulty": "easy"
	}
}
